{
  "images" : [
    {
      "idiom" : "universal",
      "filename" : "Buraq car icons_iOS_ic_mini_truck_water_m copy.png",
      "scale" : "1x"
    },
    {
      "idiom" : "universal",
      "filename" : "Buraq car icons_iOS_ic_mini_truck_water_m copy@2x.png",
      "scale" : "2x"
    },
    {
      "idiom" : "universal",
      "filename" : "Buraq car icons_iOS_ic_mini_truck_water_m copy@3x.png",
      "scale" : "3x"
    }
  ],
  "info" : {
    "version" : 1,
    "author" : "xcode"
  }
}