{
  "images" : [
    {
      "filename" : "Screenshot 2021-03-15 at 2.38.31 PM 1.png",
      "idiom" : "universal",
      "scale" : "1x"
    },
    {
      "filename" : "Screenshot 2021-03-15 at 2.38.31 PM 1-1.png",
      "idiom" : "universal",
      "scale" : "2x"
    },
    {
      "filename" : "Screenshot 2021-03-15 at 2.38.31 PM 1-2.png",
      "idiom" : "universal",
      "scale" : "3x"
    }
  ],
  "info" : {
    "author" : "xcode",
    "version" : 1
  }
}
